#{"t_start": 1666526239.9091365, "env_id": "SchedulingEnv-v0"}
r,l,t
-34.62865,457,32.113824
-5.645065,457,51.561722
-8.484439,457,73.273684
-30.867128,457,92.381285
-12.855129,457,110.357677
19.552657,457,128.432518
11.066178,457,150.743954
23.070209,457,168.983964
-8.772447,457,187.795723
-20.890235,457,206.152308
29.299147,457,225.707162
28.762728,457,247.785781
-41.211422,457,266.445409
50.779596,457,284.666287
21.829497,457,304.537741
51.046779,457,326.464643
11.675932,457,345.17467
32.624321,457,364.381431
20.780155,457,383.464147
94.283548,457,402.648769
68.731979,457,426.137466
51.201161,457,445.550453
90.556254,457,468.007087
109.792114,457,483.11897
86.538558,457,505.432961
99.408342,457,524.810606
51.964986,457,543.177619
118.266525,457,562.316495
87.102066,457,580.483907
69.98085,457,603.454615
114.185622,457,622.472824
121.988134,457,645.917884
116.902559,457,659.82678
131.261773,457,682.231548
159.513655,457,700.847627
147.075879,457,719.507515
163.847127,457,742.193597
158.476888,457,756.553693
192.981551,457,779.492045
156.030783,457,797.749459
194.822756,457,820.283549
218.306345,457,834.49204
187.175038,457,857.038007
201.154781,457,876.402661
191.795096,457,893.992831
193.832947,457,916.291512
228.637891,457,930.793168
212.745154,457,951.534609
214.786983,457,970.387853
243.016361,457,992.110078
231.003165,457,1011.221484
223.596042,457,1028.849656
204.897802,457,1047.795261
258.710103,457,1065.348107
216.786087,457,1086.352198
258.31533,457,1098.216082
243.569589,457,1119.655667
231.769995,457,1138.390928
229.854098,457,1160.898607
236.042943,457,1179.876801
212.236947,457,1196.825857
250.917663,457,1215.832879
238.134717,457,1234.353342
292.264928,457,1255.409893
240.672094,457,1274.247002
283.379523,457,1292.536275
271.11439,457,1310.600835
245.347376,457,1331.205423
276.374994,457,1350.185832
292.865766,457,1367.742212
286.390635,457,1382.844657
276.743643,457,1401.224206
268.16688,457,1421.408203
303.207425,457,1440.063488
293.324438,457,1457.79351
304.441262,457,1476.043637
287.458206,457,1499.188507
299.860012,457,1517.992587
301.24536,457,1537.605063
300.05072,457,1550.331246
302.11514,457,1568.449686
302.022398,457,1591.472641
288.234211,457,1605.641445
291.928584,457,1624.238263
308.735916,457,1640.674255
300.39185,457,1662.871098
289.141748,457,1680.56863
304.021732,457,1703.028421
304.398825,457,1715.766
292.95816,457,1731.363616
316.951853,457,1751.857993
309.898679,457,1767.442271
276.985409,457,1788.553311
289.562828,457,1803.892212
295.834866,457,1824.233202
286.905182,457,1843.231197
304.788003,457,1866.281221
279.519696,457,1882.196905
290.771689,457,1897.601313
280.716613,457,1919.993084
297.484562,457,1939.113232
277.075119,457,1960.880132
296.385115,457,1975.738362
269.058417,457,1995.896591
307.138435,457,2013.607901
284.190384,457,2036.664423
268.15604,457,2052.328023
307.024226,457,2064.699817
294.647137,457,2087.949855
295.396783,457,2104.620957
297.177151,457,2123.956482
304.688005,457,2139.163734
301.997555,457,2159.81118
297.249168,457,2179.011464
301.421621,457,2199.532099
299.707169,457,2218.144318
306.410376,457,2233.507849
305.653391,457,2253.082671
272.76536,457,2272.585339
275.735589,457,2292.74933
299.599754,457,2311.447249
298.865257,457,2326.380955
296.092058,457,2342.49191
290.159434,457,2364.383776
272.239427,457,2380.367815
283.89145,457,2392.856981
301.757408,457,2412.424546
290.530133,457,2429.610557
308.254428,457,2452.291151
316.758982,457,2470.818866
297.353485,457,2486.877234
304.085416,457,2502.502038
293.381318,457,2525.076331
304.505869,457,2542.488664
306.912707,457,2554.992136
302.659418,457,2574.593052
291.535579,457,2590.666524
