#{"t_start": 1666526247.7304757, "env_id": "SchedulingEnv-v0"}
r,l,t
6.712708,457,24.303679
-8.261859,457,43.752717
-55.47533,457,65.469935
-9.255488,457,84.573208
8.068543,457,102.548421
55.53527,457,120.621602
1.339501,457,142.935231
16.343281,457,161.176028
-39.446558,457,179.988768
7.005723,457,198.344277
10.122671,457,217.897902
44.268864,457,239.976886
33.401001,457,258.636512
-20.499411,457,276.855456
16.71198,457,296.729059
4.074138,457,318.656858
47.071293,457,337.365266
84.460926,457,356.573233
53.661152,457,375.655045
80.371679,457,394.839697
70.032135,457,418.328082
97.663167,457,437.743805
68.55235,457,460.199531
45.228258,457,475.310472
49.039257,457,497.622432
65.160494,457,517.002237
109.6753,457,535.369559
63.084535,457,554.507328
59.535237,457,572.676307
104.784519,457,595.64597
149.410997,457,614.667673
122.894949,457,638.110107
111.506236,457,652.015775
156.64469,457,674.420099
123.035863,457,693.036198
180.559791,457,711.695243
197.423562,457,734.382341
150.522461,457,748.742033
170.82712,457,771.681347
184.906237,457,789.938468
215.925715,457,812.472131
202.802946,457,826.680195
223.349283,457,849.226848
149.909636,457,868.590899
220.053259,457,886.181051
220.140733,457,908.480071
236.243982,457,922.98157
235.65712,457,943.722728
240.254441,457,962.576571
254.893731,457,984.298639
215.226421,457,1003.409598
250.518795,457,1021.038579
213.52433,457,1039.983454
254.254962,457,1057.53616
234.317845,457,1078.540272
232.086903,457,1090.404811
254.209968,457,1111.843894
251.705767,457,1130.578944
255.360855,457,1153.087345
231.907728,457,1172.065164
239.492869,457,1189.013945
216.84429,457,1208.021485
261.347712,457,1226.54226
279.996534,457,1247.598255
298.293633,457,1266.435026
242.607209,457,1284.725041
299.847372,457,1302.789138
284.163236,457,1323.393394
248.115503,457,1342.374334
277.52543,457,1359.93049
284.108561,457,1375.032972
246.51952,457,1393.412425
300.910399,457,1413.596616
218.684235,457,1432.251437
279.767332,457,1449.981484
289.857249,457,1468.232266
282.11684,457,1491.376759
298.364831,457,1510.180661
283.940918,457,1529.793128
292.125023,457,1542.519202
298.574804,457,1560.637713
268.32802,457,1583.661742
271.907308,457,1597.832875
303.733257,457,1616.429117
320.194628,457,1632.862414
271.877856,457,1655.062085
307.869526,457,1672.759859
300.553102,457,1695.217437
299.956496,457,1707.956338
301.611741,457,1723.557377
289.20051,457,1744.048933
289.549208,457,1759.633702
308.857787,457,1780.744599
296.74544,457,1796.082717
293.885847,457,1816.423936
302.411438,457,1835.423213
305.645505,457,1858.472815
300.349341,457,1874.391443
298.999553,457,1889.794549
299.647975,457,1912.184188
295.907257,457,1931.304032
295.769274,457,1953.075205
284.851595,457,1967.930139
296.462248,457,1988.086429
293.396419,457,2005.798809
306.090431,457,2028.857222
271.874136,457,2044.523832
301.235072,457,2056.890333
292.333001,457,2080.140317
299.31605,457,2096.811988
283.764741,457,2116.149065
317.552193,457,2131.354005
316.222028,457,2152.001774
307.119901,457,2171.201099
307.565578,457,2191.723813
290.395319,457,2210.335209
304.885983,457,2225.699935
298.301566,457,2245.273433
298.422013,457,2264.77626
314.030578,457,2284.940292
312.938532,457,2303.639701
294.565407,457,2318.572343
305.503982,457,2334.682713
303.744972,457,2356.575044
308.832714,457,2372.556426
309.466136,457,2385.047467
305.058811,457,2404.616879
312.561374,457,2421.801352
313.283238,457,2444.481555
302.079754,457,2463.010424
316.698619,457,2479.06877
294.984412,457,2494.692713
294.297299,457,2517.267632
304.40489,457,2534.679723
307.835132,457,2547.182573
281.193662,457,2566.783978
295.10126,457,2582.857422
