#{"t_start": 1666648247.6458662, "env_id": "SchedulingEnv-v0"}
r,l,t
274.353862,457,49.274369
258.987154,457,68.641206
247.243003,457,87.472821
246.268299,457,104.676365
270.945116,457,122.156054
247.803676,457,137.735086
286.152697,457,160.720962
249.639596,457,180.294047
253.26502,457,199.982962
286.872053,457,213.337119
284.90802,457,228.015162
291.326713,457,250.807764
271.02721,457,270.445345
260.417963,457,284.343301
268.010745,457,303.57212
284.964745,457,326.426317
265.262793,457,342.355392
285.529444,457,357.408349
291.712124,457,370.165501
270.585309,457,384.704635
294.777921,457,403.258561
277.268206,457,417.515653
292.04864,457,432.677851
282.160305,457,443.007368
293.30771,457,459.331488
289.667323,457,480.088992
291.073991,457,499.418485
