#{"t_start": 1666648268.9293964, "env_id": "SchedulingEnv-v0"}
r,l,t
281.185427,457,28.02196
256.358772,457,47.387998
265.637734,457,66.21982
249.340097,457,83.423337
281.329611,457,100.903372
254.334032,457,116.481989
276.41883,457,139.468066
259.66345,457,159.042713
249.163087,457,178.732195
241.817376,457,192.085036
276.663296,457,206.763645
279.030596,457,229.555446
280.685558,457,249.193071
271.527306,457,263.092273
278.073305,457,282.319656
285.215155,457,305.173536
277.434023,457,321.105973
291.975186,457,336.156363
285.262466,457,348.913283
279.737741,457,363.452864
270.781464,457,382.006551
283.285737,457,396.261974
279.498409,457,411.424429
284.086522,457,421.754264
269.106557,457,438.080485
292.283224,457,458.835242
283.244901,457,478.165205
