#{"t_start": 1666648256.1783333, "env_id": "SchedulingEnv-v0"}
r,l,t
268.37825,457,40.75449
274.450147,457,60.121003
279.282743,457,78.95275
274.596061,457,96.15633
280.1715,457,113.636024
291.747599,457,129.214882
289.331204,457,152.200892
286.071051,457,171.77465
272.783102,457,191.463901
283.41606,457,204.81714
271.671159,457,219.495484
276.131621,457,242.287922
278.425127,457,261.92569
280.527018,457,275.824097
278.611661,457,295.052332
280.452994,457,317.906375
280.046529,457,333.836828
284.615048,457,348.888677
272.161077,457,361.645693
279.606909,457,376.185068
287.50895,457,394.738651
270.742181,457,408.995156
286.091719,457,424.157423
272.667276,457,434.487263
277.917606,457,450.812562
285.271827,457,471.568561
281.433823,457,490.898342
