#{"t_start": 1666529730.2978148, "env_id": "SchedulingEnv-v0"}
r,l,t
-65.161836,457,57.514685
-41.093997,457,76.086113
-49.390853,457,98.846365
-5.039661,457,118.010213
-38.817521,457,137.620496
-11.976491,457,156.66453
-2.697156,457,179.655893
-24.840049,457,198.782839
15.545631,457,218.53379
-44.802745,457,237.77786
25.798356,457,256.507756
3.725519,457,279.344012
8.130616,457,298.833861
6.344623,457,318.100994
21.484418,457,337.365983
69.460254,457,361.145348
14.830153,457,380.048467
18.339866,457,399.03093
26.719154,457,418.185434
34.750055,457,436.999021
45.409153,457,459.899395
63.759261,457,478.739309
85.201004,457,501.893358
78.962573,457,517.64355
46.773676,457,540.392711
46.025356,457,559.023967
120.128529,457,577.579552
95.63421,457,597.300134
89.603277,457,616.464726
89.186205,457,639.611985
116.572971,457,658.893381
131.241324,457,682.474936
98.928966,457,697.605323
135.177944,457,721.466222
151.655451,457,740.831392
161.537228,457,759.4411
160.154093,457,782.754548
166.458736,457,798.074462
154.437933,457,821.891754
176.636053,457,841.375359
172.120687,457,864.36548
174.734134,457,879.688024
