#{"t_start": 1666529759.381717, "env_id": "SchedulingEnv-v0"}
r,l,t
-75.044747,457,28.483442
-13.140982,457,47.053757
-101.648138,457,69.811294
-34.153256,457,88.977524
-4.546954,457,108.58601
-2.398973,457,127.619864
0.955981,457,150.621689
-14.553784,457,169.762116
-39.38506,457,189.493323
37.411913,457,208.743391
51.969048,457,227.470406
13.115121,457,250.307217
41.869952,457,269.79933
10.238584,457,289.06617
2.330239,457,308.338671
6.9227,457,332.108427
50.050377,457,351.013069
46.983629,457,369.995929
61.309043,457,389.150973
88.475813,457,407.964026
73.644437,457,430.86383
67.607976,457,449.704124
67.008312,457,472.86294
70.167437,457,488.607416
31.67847,457,511.357399
94.874613,457,529.979771
94.756341,457,548.554273
95.275788,457,568.26486
64.893214,457,587.42603
138.421804,457,610.573947
148.704682,457,629.858341
132.945562,457,653.432544
135.195862,457,668.568585
101.153273,457,692.432597
147.21871,457,711.795508
172.214981,457,730.405449
178.534964,457,753.722711
173.281529,457,769.037391
194.087668,457,792.85494
176.709736,457,812.339443
173.280888,457,835.327152
229.678172,457,850.647677
