#{"t_start": 1666529766.9534335, "env_id": "SchedulingEnv-v0"}
r,l,t
-29.673013,457,20.925673
-47.702805,457,39.495886
-59.381724,457,62.252856
-9.943571,457,81.419311
-40.700839,457,101.027755
-5.687695,457,120.059064
31.722576,457,143.063006
16.826545,457,162.204609
30.379059,457,181.932927
29.116447,457,201.18522
14.070915,457,219.912751
15.366768,457,242.747011
18.168881,457,262.244385
19.861008,457,281.507133
1.944776,457,300.779814
-5.496201,457,324.549412
7.011951,457,343.457447
13.512617,457,362.437379
76.384988,457,381.592935
9.345995,457,400.405341
88.174144,457,423.305274
7.961685,457,442.146324
35.860281,457,465.30488
73.158629,457,481.049202
85.931962,457,503.798866
62.779681,457,522.418619
74.707867,457,540.996351
104.943987,457,560.706474
76.249095,457,579.866632
131.018701,457,603.014718
97.871665,457,622.301551
130.473043,457,645.872544
122.932216,457,661.009687
120.656098,457,684.87399
123.638681,457,704.237001
147.858525,457,722.847036
129.081449,457,746.164545
162.248363,457,761.477684
154.792808,457,785.295755
148.364173,457,804.780636
192.842721,457,827.767525
204.220741,457,843.087846
