#{"t_start": 1666529769.528889, "env_id": "SchedulingEnv-v0"}
r,l,t
-63.743799,457,18.354798
-5.824355,457,36.924902
-34.076369,457,59.681606
-76.641257,457,78.848336
0.100448,457,98.456604
-7.657179,457,117.487148
-8.026299,457,140.491688
-36.966335,457,159.633903
-10.71711,457,179.361171
35.283637,457,198.61396
11.810615,457,217.341511
27.03552,457,240.175233
60.454489,457,259.673162
41.146302,457,278.93644
15.814267,457,298.20842
54.60249,457,321.978268
43.381092,457,340.886176
98.40909,457,359.866107
52.769209,457,379.021903
55.323733,457,397.834435
28.800769,457,420.734371
62.423278,457,439.575931
65.735746,457,462.733988
70.803394,457,478.477764
105.23437,457,501.227908
66.007251,457,519.846671
101.69632,457,538.425529
93.10359,457,558.135584
91.857145,457,577.295434
88.62269,457,600.443568
157.833584,457,619.730643
103.8798,457,643.301011
90.852597,457,658.438304
120.070613,457,682.302962
96.499931,457,701.665999
168.13557,457,720.275954
129.856796,457,743.593163
136.39806,457,758.905873
195.079493,457,782.724808
168.500442,457,802.209715
188.92789,457,825.196311
151.675749,457,840.516065
