#{"t_start": 1666529743.2102973, "env_id": "SchedulingEnv-v0"}
r,l,t
-53.792195,457,44.625892
-48.331243,457,63.198552
-30.739073,457,85.956606
-26.889613,457,105.121476
-9.495564,457,124.730975
-40.92144,457,143.770163
25.37826,457,166.766418
-33.189159,457,185.901492
-17.312021,457,205.641666
7.483707,457,224.88798
-13.244307,457,243.616727
-17.572028,457,266.450721
-8.455626,457,285.944207
-10.473928,457,305.211233
36.175899,457,324.476135
-2.904222,457,348.254037
-8.98592,457,367.158077
41.073389,457,386.141111
34.34317,457,405.295705
92.997316,457,424.10907
83.345254,457,447.008737
25.29238,457,465.849409
13.057188,457,489.003836
27.206534,457,504.753001
90.287179,457,527.502657
119.787512,457,546.129626
93.811463,457,564.697448
77.550916,457,584.410083
72.449044,457,603.573056
112.401691,457,626.720326
126.237092,457,646.003395
112.585708,457,669.581462
143.357837,457,684.71453
147.152371,457,708.575874
109.202317,457,727.941133
108.665994,457,746.550838
146.617848,457,769.864389
161.106448,457,785.183729
112.743777,457,809.001046
173.829252,457,828.484482
170.016199,457,851.473784
223.492613,457,866.795709
