#{"t_start": 1666529748.5693624, "env_id": "SchedulingEnv-v0"}
r,l,t
-28.705546,457,39.277678
-33.342506,457,57.848565
-41.211693,457,80.606455
-19.746128,457,99.771654
-31.977898,457,119.380887
-19.928907,457,138.418178
-14.495553,457,161.416568
-13.795542,457,180.554461
20.054058,457,200.29036
24.867412,457,219.537941
23.663615,457,238.26592
37.225852,457,261.099095
10.291166,457,280.59407
-1.350911,457,299.861145
26.513535,457,319.126504
-23.878805,457,342.903371
19.914417,457,361.807922
54.34111,457,380.790662
67.575201,457,399.945388
49.782669,457,418.758835
26.856906,457,441.658724
80.916786,457,460.499017
84.572934,457,483.653763
63.514179,457,499.402642
42.653303,457,522.152397
69.56995,457,540.777584
108.984959,457,559.348101
102.14644,457,579.059979
105.474361,457,598.221919
101.193531,457,621.369578
152.620568,457,640.652839
101.830393,457,664.229638
113.195158,457,679.363781
121.983242,457,703.225455
132.476036,457,722.590816
147.990063,457,741.200416
136.485203,457,764.516766
139.36378,457,779.833291
161.83443,457,803.650524
181.823434,457,823.134206
240.784275,457,846.122902
181.866682,457,861.444611
