#{"t_start": 1666529753.968103, "env_id": "SchedulingEnv-v0"}
r,l,t
-32.002965,457,33.888074
-17.300337,457,52.458837
-36.791271,457,75.216441
-73.165563,457,94.38212
-11.94099,457,113.990833
-14.35705,457,133.026374
-2.031921,457,156.026942
17.973506,457,175.166137
-43.78201,457,194.899233
2.788802,457,214.148127
28.784668,457,232.875648
11.741162,457,255.713086
-22.645294,457,275.204256
19.302771,457,294.471146
26.411172,457,313.743267
8.967825,457,337.513416
49.013378,457,356.417911
42.671668,457,375.400779
35.855737,457,394.555622
54.371469,457,413.368725
27.086748,457,436.268242
43.526378,457,455.108995
87.327254,457,478.267358
92.652203,457,494.012908
64.390148,457,516.762342
82.992514,457,535.386105
74.417045,457,553.958416
76.219121,457,573.670319
48.364423,457,592.831361
115.909202,457,615.979249
139.290896,457,635.263034
138.599551,457,658.838425
121.86117,457,673.973587
143.20679,457,697.835433
145.628865,457,717.200624
141.64367,457,735.810302
174.727923,457,759.127502
162.339781,457,774.442737
177.470566,457,798.260201
142.269999,457,817.744373
189.433148,457,840.732533
224.179534,457,856.053558
