{"result":[
  11,
  11,
  11,
  11,
  12,
  38,
  38,
  12,
  38,
  37,
  37,
  37,
  37,
  37,
  37,
  37,
  37,
  37,
  37,
  33,
  38,
  37,
  37,
  37,
  37,
  37,
  37,
  37,
  37,
  37,
  37,
  37,
  37,
  37,
  38,
  5,
  7,
  8,
  9,
  15,
  15,
  2,
  2,
  17,
  13,
  19,
  2,
  2,
  2,
  2,
  30,
  27,
  27,
  32,
  32,
  32,
  32,
  32,
  32,
  32,
  32,
  32,
  32,
  32,
  32,
  32,
  32,
  32,
  32,
  32,
  32,
  32,
  32,
  32,
  32,
  32,
  32,
  32,
  32,
  32,
  32,
  32,
  32,
  32,
  32,
  32,
  32,
  32,
  32,
  32,
  32,
  32,
  32,
  32,
  32,
  32,
  32,
  32,
  32,
  32,
  32,
  32,
  32,
  32,
  32,
  32,
  32,
  32,
  32,
  32,
  32,
  32,
  32,
  32,
  32,
  32,
  32,
  32,
  32,
  32,
  32,
  32,
  32,
  32,
  32,
  32,
  32,
  32,
  32,
  32,
  32,
  32,
  32,
  32,
  32,
  32,
  32,
  32,
  32,
  32,
  32,
  32,
  32,
  32,
  32,
  32,
  32,
  32,
  32,
  32,
  32,
  17,
  19,
  27,
  38,
  17,
  19,
  15,
  15,
  19,
  15,
  27,
  17,
  15,
  16,
  15,
  15,
  15,
  15,
  15,
  15,
  15,
  15,
  15,
  15,
  18,
  18,
  18,
  16,
  19,
  18,
  19,
  17,
  19,
  2,
  12,
  12,
  12,
  12,
  15,
  15,
  20,
  36,
  36,
  36,
  36,
  36,
  17,
  17,
  27,
  27,
  27,
  27,
  27,
  31,
  17,
  17,
  31,
  27,
  30,
  36,
  27,
  31,
  33,
  27,
  32,
  15,
  15,
  17,
  30,
  36,
  36,
  36,
  36,
  17,
  36,
  17,
  36,
  15,
  36,
  10,
  26,
  26,
  6,
  6,
  6,
  6,
  6,
  6,
  13,
  6,
  6,
  6,
  6,
  6,
  11,
  17,
  17,
  15,
  15,
  20,
  20,
  16,
  19,
  17,
  17,
  19,
  16,
  31,
  31,
  15,
  17,
  19,
  18,
  18,
  18,
  15,
  30,
  16,
  18,
  19,
  19,
  16,
  16,
  19,
  30,
  16,
  20,
  19,
  20,
  19,
  31,
  30,
  17,
  19,
  15,
  30,
  30,
  18,
  18,
  17,
  30,
  17,
  15,
  15,
  13,
  13,
  3,
  10,
  1,
  4,
  10,
  1,
  4,
  10,
  1,
  4,
  13,
  31,
  17,
  17,
  31,
  15,
  15,
  15,
  33,
  33,
  33,
  33,
  33,
  33,
  30,
  30,
  36,
  15,
  31,
  15,
  15,
  15,
  15,
  20,
  19,
  20,
  19,
  19,
  19,
  15,
  11,
  31,
  11,
  26,
  26,
  26,
  26,
  26,
  26,
  11,
  0,
  15,
  15,
  15,
  15,
  15,
  15,
  12,
  12,
  28,
  28,
  28,
  28,
  28,
  28,
  28,
  28,
  28,
  28,
  28,
  28,
  28,
  28,
  28,
  28,
  28,
  28,
  28,
  28,
  28,
  28,
  28,
  28,
  28,
  28,
  28,
  28,
  28,
  28,
  28,
  28,
  28,
  28,
  28,
  28,
  28,
  28,
  28,
  28,
  28,
  28,
  28,
  28,
  28,
  28,
  28,
  28,
  28,
  28,
  28,
  28,
  28,
  28,
  28,
  28,
  28,
  28,
  28,
  28,
  28,
  28,
  28,
  28,
  28,
  28,
  28,
  28,
  28,
  28,
  28,
  28,
  28,
  28,
  28,
  28,
  28,
  28,
  28,
  28,
  28,
  28,
  2,
  20,
  13,
  13,
  13,
  13,
  13,
  27,
  27,
  27,
  27,
  27,
  27,
  27,
  13,
  31,
  11,
  30,
  11
]}
